{
	"3": [
		"토지",
		"과수원",
		"땅",
		"사업부지"
	],
	"4": [
		"상가",
		"점포",
		"세탁소",
		"편의점",
		"분식집",
		"김밥집",
		"과일가게",
		"전통시장,채소가게",
		"학원",
		"가게"
	],
	"5": [
		"농지",
		"전답",
		"귀농",
		"논,마지기",
		"밭",
		"농경지",
		"농장"
	],
	"6": [
		"임야",
		"산",
		"선산",
		"산지"
	],
	"7": [
		"주택",
		"집,빌라",
		"맨션",
		"집주인",
		"세입자",
		"종가집",
		"별장,주거용",
		"오피스텔",
		"전세",
		"고택",
		"시골집"
	],
	"8": [
		"아파트",
		"아이파크",
		"엘지자이",
		"롯데캐슬",
		"힐스테이트"
	]
,

	"9": [
		"중장비",
		"건설중기",
		"포크레인",
		"덤프트럭",
		"건설기계",
		"화물차",
		"카고트레인",
		"트럭크레인",
		"지게차",
		"덤프",
		"지입차",
		"로더",
		"불도저",
		"스크레이퍼",
		"기중기",
		"모터그레이터",
		"롤러",
		"노상안정기",
		"뱃칭플랜트",
		"피니셔","살포기","믹서트럭","펌프","아믹싱플랜트","쇄석기","압축기","천공기","항타","항벌기","재취기","준설선","특수건설기계"
	],
	"10": [
		"기계",
		"장비",
		"프레스",
		"머시닝",
		"기기",
		"재생압출기",
		"압출기",
		"브레이드머신"
	],
	"14": [
		"농기계",
		"경운기",
		"트랙터",
		"배합기",
		"콤바인",
		"배토기",
		"이양기",
		"예초기",
		"옥수수수확시","축산작업기",
		"하베스터",
		"GM56",
		"농업용",
		"건조기"
	]
,

	"141": [
		"일용",
		"일당","인분","건설형장"
	],
	"142": [
		"단시간",
		"아르바이트",
		"시간,타임"
	],
	"143": [
		"연봉",
		"연봉",
		"포괄임금제",
		"월지급",
		"호봉별,직급별",
		"부장님,대표",
		"강사",
		"임원",
		"페이닥터",
		"퇴직금"
	]
,

	"1": [
		"부동산","매매",
		"건물",
		"과수원",
		"빌딩",
		"집"
	],
	"12": [
		"회원권"
	],
	"13": [
		"동산",
		"비품","의자","식기",
		"물건",
		"화분","수목",
		"인쇄기계",
		"컴퓨터",
		"종자",
		"자재","토석",
		"의류",
		"장난감",
		"공구","제조장비",
		"냉장고",
		"집기","밥솥","주방용품",
		"정수기",
		"노트북",
		"공유기"
	],
	"17": [
		"공장"
	],
	"68": [
		"사무집기"
	],
	"69": [
		"이름",
		"상호"
	],
	"90": [
		"번역",
		"한국어","영어","바꾸어서",
		"중문",
		"중국어"
	],
	"91": [
		"통역"
	],
	"162": [
		"개발"
	],
	"163": [
		"경비"
	],
	"165": [
		"청소"
	],
	"166": [
		"소독"
	],
	"167": [
		"안전,점검"
	],
	"168": [
		"조경",
		"수목","연못","잔디",
		"나무,호수"
	],
	"169": [
		"조사"
	]
,

	"171": [
		"건물","주택","토지",
		"세무","회계",
		"부동산",
		"농지","땅"
	],
	"172": [
		"창업"
	],
	"224": [
		"경영"
	],
	"230": [
		"금융",
		"자금대출","대출알선업무",
		"대출알선","자금조달",
		"주식","채권","부동산"
	]
,

	"20": [
		"땅","토지",
		"대지",
		"나대지",
		"임야",
		"선산",
		"농지","농어촌","논","전답",
		"부지"
	],
	"21": [
		"상가",
		"가게",
		"점포",
		"커피숍",
		"장사",
		"레스토랑",
		"분식집",
		"커피전문점"
	],
	"23": [
		"주택",
		"월세,전세계",
		"월세계약서","전세계약서",
		"집",
		"세입자",
		"원룸",
		"종가집",
		"별장",
		"오피스텔",
		"빌라",
		"시골집"
	],
	"24": [
		"아파트",
		"월세","전세계",
		"월세계약서","전세계약서",
		"래미안",
		"힐스테이트",
		"센트레빌",
		"아이파크",
		"엘지자이",
		"푸르지오",
		"이편한세상",
		"SK뷰","SK 뷰"
	]
,

	"164": [
		"호텔",
		"휴양소",
		"모텔"
	],
	"174": [
		"피씨방",
		"컴퓨터",
		"업그레이드",
		"사양",
		"PC방"
	]
,

	"212": [
		"메니지먼트"
	]
,

	"226": [
		"인터넷",
		"온라인",
		"사이트","포털",
		"쇼핑몰",
		"스마트스토어",
		"홈페이지"
	]
,

	"222": [
		"미수금",
		"채권"
	]
,

	"44": [
		"상품",
		"감자",
		"감자",
		"작품",
		"제품"
	],
	"45": [
		"맡김",
		"물품",
		"주방집기",
		"감자",
		"감자",
		"중장비","공작기계",
		"작품"
	],
	"46": [
		"창고"
	]
,

	"18": [
		"부동산",
		"임대차계약서반전세계약서","월세계약서","보증부월세계약서",
		"건물",
		"과수원"
	],
	"19": [
		"전대차",
		"전전세",
		"재임대",
		"사무실"
	],
	"25": [
		"자동차",
		"자가용",
		"차",
		"봉고차"
	],
	"26": [
		"PC,렌탈"
	],
	"27": [
		"중기","중장비",
		"포크레인",
		"건설기계",
		"지게차",
		"굴착기",
		"크레인","포크레인","운반트럭","굴삭기",
		"불도저",
		"로라",
		"로더","스크레이퍼","기중기","모터그레이더","롤러","노상안정기","뱃칭플랜트","피리셔","살포기","믹서트럭","펌프","믹싱플랜트","피니셔","쇄석기","공기압축기","천공기","항발기","채취기","준설선","타워크레인"
	],
	"28": [
		"카페",
		"커피숍",
		"까페"
	],
	"29": [
		"컨테이너"
	],
	"30": [
		"주유소"
	],
	"31": [
		"찜질방",
		"목욕탕"
	],
	"32": [
		"사우나"
	],
	"34": [
		"공장"
	],
	"35": [
		"주차장"
	],
	"36": [
		"설비"
	],
	"37": [
		"자판기",
		"자동판매기"
	],
	"38": [
		"전세버스"
	],
	"39": [
		"기계"
	],
	"40": [
		"매장",
		"분식점"
	]
,

	"47": [
		"부동산",
		"상가","건물","점포",
		"주택",
		"아파트",
		"나대지","논","밭","전답","전","주거지",
		"땅",
		"토지",
		"대지",
		"농지","농어촌","논","전답",
		"분양권",
		"시골",
		"집","건물",
		"필지","사유지",
		"빌라",
		"부지"
	]
,
	"51": [
		"아파트",
		"롯데캐슬",
		"푸르지오"
	],
	"53": [
		"임야",
		"땅",
		"토지",
		"농지",
		"산지",
		"부지",
		"논",
		"염전",
		"채석장",
		"선산",
		"전답","논","밭","전",
		"나대지"
	]
,

	"49": [
		"주식",
		"지분",
		"회사",
		"기업"
	],
	"50": [
		"부동산",
		"주택","집",
		"원룸",
		"오피스텔",
		"빌딩",
		"별장"
	],
	"52": [
		"자동차",
		"벤츠",
		"차량",
		"BMW",
		"마세라티",
		"자가용",
		"인피니티",
		"랜드로버",
		"카니발",
		"포터트럭",
		"그랜저",
		"소나타"
	],
	"251": [
		"효도",
		"부모","자녀",
		"아버지","어머니","자식","아들","딸",
		"아빠,엄마"
	],
	"252": [
		"조건부",
		"아빠","엄마"
	],

	"56": [
		"오피스텔",
		"주택",
		"부동산",
		"상가",
		"아파트",
		"임야",
		"땅,밭",
		"아파트",
		"빌딩",
		"토지",
		"땅"
	]
,

	"59": [
		"휴게소"
	],
	"60": [
		"유흥주점",
		"술집","업소",
		"아가씨"
	],
	"61": [
		"편의점",
		"지에스25","GS25","GS 25",
		"세븐일레븐",
		"CU",
		"패밀리마트"
	],
	"62": [
		"단란주점",
		"노래방"
	],
	"63": [
		"쭈꾸미삼겹살집","갈비집","김밥집","국수집","카레집","브런치카페","낙지덮밥집","짬뽕전문점","꼬막비빔밥집","샤부샤부집","매운탕전문점","스파게티전문점",
		"일반음식점",
		"브런치카페",
		"음식점",
		"식당",
		"쌀국수","쌀국수집",
		"오리고기집",
		"만두전문점",
		"쌀밥집",
		"볶음밥집",
		"밥집","피자집","치킨집","면집",
		"빵집",
		"돈까스집",
		"라면집",
		"햄버거 가게",
		"마라탕집",
		"샤브샤브집",
		"스테이크 전문점",
		"레스토랑",
		"일식집",
		"죽집",
		"비빔밥집",
		"통닭집",
		"매운탕집",
		"복어집",
		"국수집"
	],
	"64": [
		"찜질방",
		"목욕탕"
	],
	"66": [
		"주유소"
	],
	"67": [
		"PC방",
		"게임방",
		"피씨방",
		"겜방",
		"피시방"
	],
	"110": [
		"차량",
		"중고차",
		"지입차",
		"냉동탑차",
		"화물차",
		"화물자동차"
	],
	"114": [
		"중장비",
		"지게차",
		"레미콘",
		"굴삭기",
		"포크레인",
		"덤프트럭",
		"트럭"
	],
	"115": [
		"관광버스",
		"버스"
	]
,

	"80": [
		"저작권",
		"에니메이션","판권",
		"음악","영화",
		"영상"
	],
	"81": [
		"특허권"
	],
	"82": [
		"실용신안권"
	],
	"83": [
		"상표권"
	],
	"84": [
		"디자인권"
	]
}
