사기,사기
사실,사실
작성,작성
습니다,습니다
계약서,계약서
매매,매매
영업,영업
양수도,양수도
교환,교환
증여,증여
용역,용역
사용,사용
지문,지문
양도,양도
분양,분양
광고,광고
인수,인수
공사,공사
계발,계발
구매,구매
설정,설정
제작,제작
제휴,제휴
위탁,위탁
중개,중개
라이선스,라이선스
출판,출판
의사록,의사록
근로,근로
유지,유지
보수,보수
위임,위임
컨설팅,컨설팅
비밀,비밀
대물,대물
변제,변제
신탁,신탁
지입,지입
하도급,하도급
투자,투자
임치,임치
교환,교환
지입,지입
보수,보수
허락,허락
임대차,임대차
1 - 26  부동산,부동산
1 - 28  토지,토지
1 - 31 아파트,아파트
1 - 29 상가,상가
1 - 30 주택,주택
1 - 32 자동차,자동차
1 - 35 커피숍,커피숍
1 - 36 컨테이너,컨테이너
1 - 37 주유소,주유소
1 - 38 찜질방,찜질방
1 - 39 사우나,사우나
1 - 40 공장,공장
1 - 41 주차장,주차장
1 - 42 설비,설비
1 - 43 자동판매기,자동판매기
1 - 44 전세버스,전세버스
1 - 45 기계,기계
1 - 46 매장,매장
1 - 34 중장비,중장비
1 - 10  부동산,부동산
1 - 11  자동차,자동차
1 - 12 토지,토지
1 - 13 상가,상가
1 - 14 농지,농지
1 - 15 임야,임야
1 - 16 주택,주택
1 - 17 아파트,아파트
1 - 18 중장비,중장비
1 - 19 기계,기계
1 - 20 회원권,회원권
1 - 21 동산,동산
1 - 22 농기계,농기계
1 - 25 공장,공장
1 - 64 휴게소 ,휴게소 
1 - 65 유흥주점,유흥주점
1 - 66 편의점,편의점
1 - 67 단란주점,단란주점
1 - 68  일반음식점, 일반음식점
1 - 69 찜질방 ,찜질방 
1 - 70 주유소,주유소
1 - 71 PC방 ,PC방 
1 - 53 부동산,부동산
8 - 5 주식,주식
1 - 55 주식,주식
1 - 56 부동산,부동산
1 - 57 아파트,아파트
1 - 58 자동차,자동차
1 - 59 토지,토지
9 - 3 조건부,건부
2 - 22 번역,번역
2 - 23 통역,통역
6 - 1 감리,리
6 - 7 설계,계
7 - 18 개발,개발
7 - 19 경비,경비
7 - 20 청소,청소
7 - 21 소독,소독
7 - 22 안전점검,안전점검
7 - 23 조경관리,조경관리
7 - 24 조사용,조사용
2 - 25 음악저작물 ,음악저작물 
2 - 26 저작권 ,저작권 
2 - 27 초상권 ,초상권 
2 - 28 지식재산권 비독점 ,지식재산권 비독점 
2 - 29 지식재산권 독점 ,지식재산권 독점 
2 - 31 방송 극본 집필,방송 극본 집필
2 - 2 법률,률
7 - 14 재무관리,재무관리
7 - 77 경영,경영
7 - 83 금융,금융
8 - 12 기업인수,기업인수
1 - 72 사무집기,사무집기
1 - 73 상호,상호
2 - 10 지식재산권,지식재산권
2 - 11 저작권 ,저작권 
2 - 12 특허권,특허권
2 - 13 실용신안권,실용신안권
2 - 14 상표권,상표권
2 - 15 디자인권,디자인권
3 - 2 채권,채권
4 - 3 상가,상가
4 - 4 지식산업센터 ,식산업센터 
7 - 30 오프라인 ,오프라인 
7 - 31 온라인 ,온라인 
7 - 32 방송,방송
3 - 3 면책적 채무,책적 채무
3 - 4 채무,채무
8 - 13 전환사채 ,전환사채 
8 - 14 신주인수권부사채,신주인수권부사채
8 - 15 전환상환우선주,전환상환우선주
8 - 4 신주,신주
4 - 6 조경,조경
6 - 5 전기,전기
6 - 6 건설,건설
2 - 18 시제품,시제품
2 - 19 공동기술,공동기술
7 - 70 웹사이트,웹사이트
1 - 1 물품,물품
1 - 2 상품,상품
2 - 34 (방송프로그램) 방영권,(방송프로그램) 방영권
2 - 16 전용실시권,전용실시권
2 - 40 출판권 설정계약서 - 14개 (2-45 출판계약서와 동시 추천),출판권 설정계약서 - 14개 (2-45 출판계약서와 동시 추천)
2 - 43 배타적발행권,배타적발행권
2 - 44 출판권 및 배타적발행권,출판권 및 배타적발행권
2 - 45 출판계약서 - 20개 (2-40의 출판권 설정계약서와 동시 추천)-conv.txt,출판계약서 - 20개 (2-40의 출판권 설정계약서와 동시 추천)-conv.txt
2 - 52 통상실시권,통상실시권
2 - 8 근저당권,저당권
2 - 9 권리질권,리질권
3 - 12 지상권,지상권
3 - 13 질권,질권
3 - 7 양도담보권,도담보권
4 - 1 가등기담보,등기담보
2 - 33 프로그램,프로그램
7 - 49 금형,금형
7 - 53 영상물,영상물
7 - 54 인쇄물,인쇄물
2 - 20 기술 개발 및,기술 개발 및
2 - 46 콘텐츠 ,콘텐츠 
7 - 15 마케팅 ,마케팅 
7 - 16 (완료) 업무,(완료) 업무
2 - 35 (방송제작스태프) 업무,(방송제작스태프) 업무
2 - 36 (방송작가) 집필,(방송작가) 집필
2 - 48 소프트웨어 개발,소프트웨어 개발
7 - 10 영업,영업
7 - 12 기술개발,기술개발
7 - 9 업무,무
2 - 50 부동산 ,부동산 
2 - 51 전속 ,전속 
8 - 11 자산,자산
8 - 6 (완료) 주식,완료) 주식
2 - 24 상표,상표
2 - 30 캐릭터,캐릭터
2 - 41 단순,단순
2 - 42 독점,독점
7 - 35 행사,행사
7 - 36 홍보,홍보
7 - 38 광고,광고
7 - 40 수입,수입
7 - 41 수출,수출
7 - 42 철거,철거
7 - 43 콜센터 운영,콜센터 운영
7 - 44 빌딩관리,빌딩관리
7 - 45 업무,업무
7 - 46 콘텐츠 판매,콘텐츠 판매
7 - 47 토지매입 ,토지매입 
1 - 24 할부,할부
7 - 7 (완료) 위탁,완료) 위탁
7 - 8 온라인 위탁,라인 위탁
1 - 3 물품,물품
1 - 4 상품,상품
1 - 5 (완료) 독점,(완료) 독점
1 - 6 골재,골재
1 - 7 농작물,농작물
1 - 8 유류,유류
1 - 9 곡류,곡류
2 - 47 디지털 만화,디지털 만화
7 - 1 OEM 공급,EM 공급
7 - 56 제작물,제작물
7 - 57 급식 위탁,급식 위탁
7 - 78 콘텐츠,콘텐츠
8 - 17 이사회 ,이사회 
8 - 18 주주총회 ,주주총회 
5 - 2 일용직 근로자용,용직 근로자용
5 - 3 아르바이트용,르바이트용
5 - 4 연봉근로자용,봉근로자용
5 - 5 표준근로계약서 ,준근로계약서 
5 - 6 (방송 제작스태프) 표준,방송 제작스태프) 표준
7 - 29 PC방 ,PC방 
2 - 49 소프트웨어,소프트웨어
5 - 11 임원,임원
7 - 75 채권추심,채권추심
7 - 81 위임계약서(형사),위임계약서(형사)
7 - 82 위임계약서(행정),위임계약서(행정)
7 - 80 위임계약서(민사),위임
7 - 26 부동산 ,부동산 
7 - 27 창업,창업
5 - 10 비밀유지서약서(퇴사자용),퇴사자
5 - 8 비밀유지서약서(입사자용),유지서약서
1 - 61 (완료) 부동산,부동산
3 - 15 부동산,부동산
7 - 62 도서,도서
2 - 5 차량,차량
2 - 6 중장비,장비
2 - 7 관광버스,관광
6 - 2 건설공사,건설공사
6 - 3 토목공사,토목
7 - 79 (방송제작스태프) 표준,표준
2 - 38 영화,영화
8 - 9 합작,합작
7 - 2 호텔,호텔
7 - 3 PC방,PC방 
1 - 50 상품,상품
1 - 51 물품,물품
1 - 52 창고,창고
